"1";"258";"";"2";"52.2217829,5.177541199999999"
"2";"456";"";"";""
"3";"471";"";"10";"51.6459908,4.8608167"
"4";"29";"";"162";"50.89419909999999,6.002215199999999"
"5";"541";"";"";""
"6";"85";"";"460";"52.3674996,4.8887411"
"7";"1261";"";"8";"51.4441382,5.223188299999999"
"8";"1180";"";"";""
"9";"357";"1017 PW";"49";"52.3648599,4.8826087"
"10";"584";"";"1";"51.4409217,5.4702972"
"11";"656";"";"";""
"12";"354";"";"84";"52.0191572,4.2772312"
"13";"1126";"";"";""
"14";"43";"";"1";"51.473444,5.655444"
"15";"704";"";"4";"50.91083709999999,4.201822"
"16";"270";"";"";""
"17";"386";"";"30";"52.38647270000001,4.654253499999999"
"18";"859";"";"1";"52.3576206,4.930395700000001"
"19";"1225";"";"17";"52.727134,6.478725799999999"
"20";"1301";"2000";"38";"51.2211197,4.4004465"
"21";"47";"";"30";"50.8656065,6.062846"
"22";"389";"";"24B";"52.00558600000001,4.7166523"
"23";"660";"";"1";"50.93754819999999,4.040390299999999"
"24";"465";"";"";""
"25";"962";"";"31";"51.9489352,5.2907202"
"26";"806";"";"";""
"27";"405";"";"";""
"28";"712";"";"";""
"29";"1277";"1961 GD";"5";"52.512031,4.6739893"
"30";"249";"1021KN";"39";"52.3856164,4.927780400000001"
"31";"824";"";"1";"51.98649529999999,5.0825154"
"32";"693";"";"45";"51.5082934,5.4929772"
"33";"741";"8911BP";"4";"53.20001190000001,5.7899252"
"34";"272";"2000";"9-11";"51.2178788,4.4093157"
"35";"132";"";"";""
"36";"30";"";"25";"51.9201378,4.4740581"
"37";"1351";"";"11";"51.5732862,4.7657619"
"38";"1331";"";"9";"51.7065801,6.001549799999999"
"39";"200";"";"71";"51.6857567,5.1261199"
"40";"87";"1071LN";"10";"52.3558986,4.8782913"
"41";"344";"9000";"23";"51.0476974,3.7278657"
"42";"575";"";"73";"53.1601567,6.7748421"
"43";"1098";"";"1";"51.580815,4.828960599999999"
"44";"150";"";"40";"52.3855729,4.9257197"
"45";"322";"";"65";"52.1630244,4.4947379"
"46";"357";"";"14";"52.364893,4.882171899999999"
"47";"70";"";"";""
"48";"1352";"9531AG";"34";"52.9244599,6.7907204"
"49";"1227";"";"12-16";"52.1548048,5.3875997"
"50";"1036";"";"";""
"51";"635";"";"";""
"52";"1171";"";"4";"51.927815,6.5841591"
"53";"838";"";"106";"51.82639820000001,4.131834"
"54";"612";"";"";""
"55";"1222";"";"96";"51.49668759999999,4.2795801"
"56";"1132";"";"1";"51.533434,4.4590141"
"57";"847";"7481 EB";"2";"52.1550508,6.744773599999999"
"58";"67";"";"";""
"59";"1347";"6532 AE";"2";"51.8239753,5.8354653"
"60";"343";"";"";""
"61";"341";"";"60";"51.5580264,5.6921576"
"62";"439";"";"31";"52.04523289999999,5.6689792"
"63";"1353";"";"18";"51.2159565,4.4073505"
"64";"373";"";"";""
"65";"404";"";"";""
"66";"228";"";"49";"52.310371,6.5290704"
"67";"10";"";"8a";"52.7081603,4.9359758"
"68";"367";"1017 CT";"11";"52.3665069,4.8963709"
"69";"596";"";"6";"51.4378793,5.4717958"
"70";"276";"";"9";"51.075211,4.2748538"
"71";"1354";"5721 GV";"10";"51.402179,5.7449612"
"72";"1001";"";"25";"50.6413897,5.5806513"
"73";"923";"";"174";"52.3908067,4.8766528"
"74";"740";"";"";""
"75";"510";"";"";""
"76";"1021";"";"";""
"77";"657";"";"104";"51.5403428,4.9411297"
"78";"799";"7071 BV";"24";"51.89527349999999,6.3841826"
"79";"95";"";"";""
"80";"290";"";"12B";"52.0780143,4.3101478"
"81";"1122";"3011TX";"300";"51.918364,4.493903599999999"
"82";"813";"";"100";"52.7826242,6.8907852"
"83";"559";"";"34";"50.741674,4.332336"
"84";"375";"";"13";"51.4413575,3.5727142"
"85";"331";"";"1";"52.1360718,5.586085199999999"
"86";"980";"2611EP";"33";"52.0106817,4.3596908"
"87";"1355";"6711MZ";"1";"52.0384689,5.6700708"
"88";"250";"";"";""
"89";"1016";"";"111";"52.3741656,4.8726901"
"90";"1140";"";"";""
"91";"1195";"";"";""
"92";"1017";"";"";""
"93";"819";"";"";""
"94";"300";"";"500";"51.4457501,5.4543944"
"95";"330";"";"";""
"96";"1174";"";"59";"52.2032385,4.398070199999999"
"97";"686";"1012KD";"45";"52.3712326,4.8942274"
"98";"506";"";"19";"51.9225089,4.4772954"
"99";"97";"";"54";"51.8608262,5.7765847"
"100";"86";"";"21";"52.3824805,4.6361063"
"101";"848";"";"3";"52.0820945,4.3154454"
"102";"311";"";"";""
"103";"215";"7772 XA";"3";"52.5774795,6.617196"
"104";"378";"2801VE";"30";"52.00800719999999,4.7066135"
"105";"329";"";"68";"50.9967519,5.865685399999999"
"106";"1348";"";"";""
"107";"223";"5481 AD";"145";"51.61665559999999,5.438242300000001"
"108";"3";"";"";""
"109";"839";"";"2";"52.4043552,6.2682155"
"110";"1356";"";"";""
"111";"803";"9900";"165";"51.1889839,3.5572971"
"112";"1323";"";"67";"50.9524006,3.1316975"
"113";"823";"";"";""
"114";"1357";"";"6";"51.6030741,5.6714015"
"115";"674";"";"6A";"53.0537409,4.796242400000001"
"116";"226";"9000";"17";"51.0538003,3.7259612"
"117";"521";"";"";""
"118";"886";"3021 EK";"127";"51.9134768,4.4633927"
"119";"533";"7553 LL";"10";"52.2612397,6.7945611"
"120";"1094";"";"3";"52.017198,5.0399978"
"121";"785";"";"33";"51.9236105,4.475399700000001"
"122";"786";"";"";""
"123";"1358";"";"";""
"124";"1359";"";"";""
"125";"1272";"";"5";"52.5261803,6.4193411"
"126";"523";"";"";""
"127";"525";"1000";"81";"50.8490556,4.3656985"
"128";"1360";"";"1";"52.2497254,6.1480045"
"129";"357";"";"181";"52.362619,4.885782"
"130";"367";"";"17";"52.3664853,4.896629799999999"
"131";"357";"";"26";"52.36378939999999,4.883693699999999"
"132";"534";"";"62";"51.72846089999999,5.8817132"
"133";"28";"";"14";"51.58872789999999,4.773297"
"134";"1361";"2611 NK";"102";"52.01481500000001,4.3574527"
"135";"768";"";"34a";"51.17163679999999,4.394540000000001"
"136";"499";"";"2";"51.8443809,5.866693799999999"
"137";"810";"1019 BS";"4";"52.3763983,4.912524700000001"
"138";"702";"";"89 - 91";"52.0661852,4.3455964"
"139";"1263";"8899 BX";"1";"53.3045626,5.0800185"
"140";"409";"";"";""
"141";"997";"";"7";"51.0443816,3.718747"
"142";"869";"9712LK";"69";"53.2245487,6.5641243"
"143";"204";"";"";""
"144";"273";"";"246";"52.3705571,4.8765453"
"145";"1183";"";"";""
"146";"211";"B-1000";"51B";"50.8640501,4.3498756"
"147";"149";"";"";""
"148";"99";"6717 LM";"24";"52.02432839999999,5.671213000000001"
"149";"746";"";"";""
"150";"1";"7411 PT";"9";"52.2544291,6.1552923"
"151";"970";"";"8";"53.0948268,6.6868457"
"152";"993";"";"12";"53.0249862,4.746571400000001"
"153";"912";"";"34";"51.2042701,3.2180522"
"154";"917";"";"3";"51.96602499999999,5.6609482"
"155";"1011";"";"1";"52.0084811,4.3629584"
"156";"8";"";"10";"51.4483436,5.458504599999999"
"157";"267";"";"";""
"158";"371";"5081 NJ";"1";"51.5186086,5.1103386"
"159";"934";"";"76";"51.8138915,4.6764452"
"160";"1109";"5554DA";"10";"51.3497445,5.4603803"
"161";"1116";"";"27";"53.21401909999999,6.576289999999999"
"162";"846";"1020";"1";"50.8995889,4.3428606"
"163";"807";"";"100";"52.3024169,4.8590554"
"164";"736";"3511 WC";"11";"52.0921763,5.1131128"
"165";"1286";"";"121";"52.7436612,5.0601276"
"166";"893";"";"41-43";"51.09429919999999,4.2318312"
"167";"826";"1315 JC";"121";"52.3723239,5.218094"
"168";"1362";"";"135";"51.2508656,4.4376497"
"169";"493";"";"1";"52.6693817,4.7005301"
"170";"6";"";"151";"52.3757187,4.9088348"
"171";"1319";"";"11";"53.2169761,6.5655949"
"172";"585";"";"";""
"173";"1284";"";"";""
"174";"939";"";"4";"51.22594530000001,3.2259028"
"175";"1363";"9101WV";"18-2";"53.3225334,6.0102084"
"176";"1364";"";"13";"52.0972638,5.115469699999999"
"177";"695";"";"";""
"178";"320";"";"";""
"179";"1365";"";"";""
"180";"1292";"";"15";"52.1026319,5.123519000000001"
"181";"969";"4201 JD";"64";"51.8315303,4.9739129"
"182";"582";"8251 EX";"80";"52.52363270000001,5.719318800000001"
"183";"1090";"1000";"50";"50.846981,4.3511083"
"184";"476";"5721GC";"44";"51.406308,5.7468477"
"185";"48";"";"4";"51.23374330000001,4.4033036"
"186";"475";"";"";""
"187";"952";"";"1";"51.8228203,5.5658952"
"188";"1187";"";"38-40";"52.3662488,4.915962599999999"
"189";"1218";"8601 EC";"8";"53.0323909,5.6572702"
"190";"195";"";"1";"51.5027583,5.3890863"
"191";"844";"";"30";"52.6912701,4.979602499999999"
"192";"1148";"9465 TR";"24";"52.99682259999999,6.6859411"
"193";"588";"";"27";"51.4680297,5.7996778"
"194";"54";"";"5";"52.62596019999999,4.7668928"
"195";"700";"";"51";"51.5583261,5.090295999999999"
"196";"64";"5038CS";"43";"51.557114,5.091936"
"197";"1366";"";"21a (Streeckgenoot)";"51.9618472,6.2900459"
"198";"273";"1016 TG";"164-166";"52.3729171,4.8757411"
"199";"897";"5462EH";"10-12";"51.6151206,5.5296438"
"200";"710";"2018";"1";"51.20637379999999,4.436381"
"201";"73";"";"111";"51.8563133,4.5368029"
"202";"1214";"";"1";"51.85615019999999,4.2972181"
"203";"951";"";"6";"51.5605208,5.089807200000001"
"204";"808";"";"";""
"205";"455";"1015CJ";"123";"52.37639,4.887459499999999"
"206";"638";"4531 AW";"16";"51.3386107,3.8230786"
"207";"1242";"";"";""
"208";"594";"";"45";"51.4169886,4.180935400000001"
"209";"1119";"";"";""
"210";"865";"";"12";"52.364656,4.8825671"
"211";"1049";"6811 GM";"6";"51.9818791,5.9041947"
"212";"1249";"";"";""
"213";"481";"";"";""
"214";"1164";"7721 LS";"2";"52.5022437,6.2580743"
"215";"558";"1077 BL";"2";"52.3514805,4.8728261"
"216";"222";"";"10";"52.366662,4.868733"
"217";"1082";"";"5";"52.0767615,4.3068475"
"218";"662";"5211 JX";"79";"51.689558,5.3031514"
"219";"1212";"";"60";"51.5580264,5.6921576"
"220";"157";"";"148";"51.81549889999999,4.6807249"
"221";"1112";"3012 XA";"71";"51.91593719999999,4.4762537"
"222";"686";"";"116";"52.36979729999999,4.8931982"
"223";"776";"";"42";"51.9810989,5.906028699999999"
"224";"220";"";"8";"51.5874493,4.782113100000001"
"225";"41";"3000";"12";"50.8815654,4.7135882"
"226";"539";"1441DK";"17-19";"52.5069978,4.956188399999999"
"227";"536";"";"11";"52.0924424,5.1208634"
"228";"620";"";"10";"51.8819229,4.48653"
"229";"1303";"";"";""
"230";"1367";"";"7A";"51.2304599,4.4093151"
"231";"1368";"";"1";"52.19833380000001,5.416879"
"232";"540";"";"";""
"233";"483";"1402SN";"3";"52.3040067,5.0411794"
"234";"1004";"";"";""
"235";"1033";"";"3";"53.2806947,6.1452953"
"236";"416";"";"25";"52.1316469,5.4149857"
"237";"1280";"";"";""
"238";"739";"";"";""
"239";"617";"";"9";"51.683857,5.3239822"
"240";"807";"1181ZM";"100a";"52.302778,4.8586982"
"241";"850";"";"";""
"242";"701";"";"2";"50.9988098,5.8612591"
"243";"1350";"";"25";"52.3158711,6.9318919"
"244";"113";"";"46";"52.1039949,6.6483149"
"245";"1369";"";"2";"51.9079258,4.4677369"
"246";"911";"";"725";"52.0630254,4.2611838"
"247";"1152";"";"21";"52.6615076,4.6342729"
"248";"772";"";"246B";"51.690579,5.069016899999999"
"249";"913";"";"";""
"250";"104";"";"";""
"251";"1199";"";"";""
"252";"834";"3000";"21";"50.8796686,4.7048214"
"253";"692";"";"58";"52.0947115,5.125759599999999"
"254";"890";"";"201";"51.9255095,4.476700399999999"
"255";"323";"";"119";"51.2311396,4.441353299999999"
"256";"219";"";"";""
"257";"1194";"1975CB";"52";"52.4616216,4.5918519"
"258";"1178";"";"";""
"259";"756";"5038EA";"27";"51.55871690000001,5.082231999999999"
"260";"1065";"1941HD";"1";"52.4866362,4.6584251"
"261";"658";"2802BC";"36";"52.00837809999999,4.7048177"
"262";"1370";"3734DB";"43";"52.1482383,5.2434156"
"263";"266";"";"";""
"264";"150";"";"85";"52.3835118,4.9213027"
"265";"581";"";"140";"51.4389699,5.4801521"
"266";"1371";"6000";"1";"50.4134093,4.4427765"
"267";"636";"";"";""
"268";"827";"";"20";"51.9288509,4.237138499999999"
"269";"1099";"";"37";"51.9527635,4.5503778"
"270";"367";"";"31";"52.366478,4.897596099999999"
"271";"817";"";"10";"51.129703,5.4586699"
"272";"673";"";"44";"51.5576483,5.0930041"
"273";"127";"";"";""
"274";"171";"";"10";"51.05695,3.7274434"
"275";"603";"";"2";"52.38422019999999,4.9030098"
"276";"135";"";"";""
"277";"424";"";"16";"52.093962,5.114328500000001"
"278";"1372";"5754 AS";"9";"51.4552419,5.8157003"
"279";"1373";"";"22";"52.3046906,4.8472957"
"280";"90";"";"58-60 (aan de werf)";"52.0947219,5.116873399999999"
"281";"1009";"";"";""
"282";"1374";"3819AC";"232";"52.1569472,5.3423102"
"283";"1231";"";"7";"52.96034909999999,5.9221454"
"284";"1060";"";"";""
"285";"264";"2140 (Borg";"28-30";"51.21942929999999,4.4483923"
"286";"719";"";"18A";"51.6002883,6.008849300000001"
"287";"482";"";"";""
"288";"538";"";"10";"52.5219487,6.109760199999999"
"289";"795";"";"30";"50.3949924,4.4665759"
"290";"1029";"";"14";"50.8447962,4.3545545"
"291";"1283";"";"55";"52.0966773,5.132359999999999"
"292";"887";"";"";""
"293";"815";"";"";""
"294";"466";"";"17";"52.9836239,6.5415988"
"295";"1375";"";"15B";"51.9946267,4.367474"
"296";"932";"";"6-7";"50.8522793,5.6977545"
"297";"878";"";"";""
"298";"632";"";"";""
"299";"974";"";"";""
"300";"1376";"";"";""
"301";"246";"";"";""
"302";"1078";"";"5";"51.4381311,5.4886387"
"303";"366";"";"";""
"304";"144";"2030";"3";"51.2427422,4.4190539"
"305";"390";"";"25";"51.43697659999999,5.480548400000001"
"306";"875";"";"";""
"307";"1311";"";"2";"51.0452495,3.7182689"
"308";"428";"";"";""
"309";"498";"1050";"3";"50.8379173,4.3633805"
"310";"357";"1017 PX";"115";"52.3635268,4.8844682"
"311";"458";"";"8-2";"53.2179701,6.5709439"
"312";"473";"";"";""
"313";"1254";"";"";""
"314";"1377";"";"";""
"315";"564";"1183AM";"106";"52.3209352,4.8741901"
"316";"61";"";"";""
"317";"1378";"3812BH";"330";"52.1565737,5.3621175"
"318";"131";"";"2";"51.4432815,5.4829626"
"319";"896";"";"5";"52.3904767,4.8251634"
"320";"1339";"";"6 - 8";"51.495424,4.2850975"
"321";"1334";"";"7";"52.1568544,5.3851507"
"322";"723";"";"";""
"323";"1379";"";"";""
"324";"1380";"";"21";"51.8439957,5.865812699999999"
"325";"772";"";"246e";"51.6905885,5.069175899999999"
"326";"386";"";"2";"52.3865249,4.6517342"
"327";"460";"2000";"28";"51.2151389,4.4079992"
"328";"1039";"";"1";"52.259519,5.222237799999999"
"329";"1007";"";"";""
"330";"1185";"";"90";"52.36423629999999,4.8804607"
"331";"879";"";"159";"51.9687513,6.2881754"
"332";"1197";"";"35";"52.2154062,5.2947202"
"333";"1326";"";"";""
"334";"358";"3512 BM";"17a";"52.0939793,5.1210866"
"335";"1219";"";"464";"52.5962272,4.7093112"
"336";"166";"";"7-8";"53.0616727,5.5253062"
"337";"767";"";"";""
"338";"321";"7311BT";"74A";"52.2160381,5.9587696"
"339";"451";"";"25";"51.8734653,4.5449848"
"340";"65";"";"4-6";"51.807476,5.726932199999999"
"341";"152";"2722 NT";"34a";"52.04809789999999,4.5288948"
"342";"194";"1000";"29";"50.8508909,4.3598268"
"343";"338";"";"";""
"344";"1243";"";"69";"52.3701229,4.9009091"
"345";"123";"2512GA";"14";"52.0745701,4.307113"
"346";"1189";"";"6";"51.52489569999999,5.4616253"
"347";"1381";"9421PD";"186";"52.9807864,6.4800714"
"348";"804";"5701 RL";"42";"51.4802812,5.65687"
"349";"387";"";"";""
"350";"79";"";"55";"52.3062109,4.906181999999999"
"351";"443";"";"";""
"352";"1337";"";"70";"52.364779,4.883215"
"353";"749";"";"";""
"354";"1202";"5261 EL";"6";"51.657189,5.297714"
"355";"453";"";"";""
"356";"348";"";"";""
"357";"735";"";"44";"52.3795476,4.8863011"
"358";"1382";"";"";""
"359";"933";"";"";""
"360";"1383";"";"39";"50.7673362,6.1040363"
"361";"1384";"";"43";"52.9578583,4.7609207"
"362";"1167";"";"";""
"363";"1385";"";"";""
"364";"235";"";"12";"51.2317839,2.9121817"
"365";"1042";"";"";""
"366";"814";"";"5";"51.8928109,5.8976121"
"367";"646";"5142 PA";"13";"51.6927336,5.0730486"
"368";"787";"";"6";"52.3128498,4.6947087"
"369";"873";"";"107";"52.096785,5.1050115"
"370";"1138";"";"";""
"371";"630";"";"";""
"372";"753";"7941 GK";"70";"52.6926195,6.190637700000001"
"373";"1386";"";"21";"52.37492220000001,6.999714099999999"
"374";"60";"1019 BL";"578";"52.3759372,4.9277878"
"375";"312";"";"193a-195";"50.8505325,4.380416500000001"
"376";"1092";"";"26";"51.8227823,4.1303436"
"377";"1209";"";"";""
"378";"253";"";"16";"51.91888489999999,4.4743483"
"379";"254";"2511 BG";"1";"52.0761471,4.3085128"
"380";"801";"";"";""
"381";"1091";"";"";""
"382";"487";"";"19-21";"51.967437,6.288285699999999"
"383";"593";"";"";""
"384";"1342";"2311 CS";"60";"52.1593977,4.4888762"
"385";"1110";"3841KL";"2";"52.3531081,5.6323173"
"386";"180";"4811 JA";"1- GROTE MARKT";"51.5873851,4.7767398"
"387";"502";"";"";""
"388";"522";"";"105";"52.3639583,4.9067747"
"389";"1055";"";"2";"51.8284908,5.839449999999999"
"390";"1387";"1948NK";"7";"52.4764624,4.6584749"
"391";"402";"";"";""
"392";"455";"";"564";"52.3646964,4.887985899999999"
"393";"665";"";"";""
"394";"408";"1017 VP";"52-60";"52.3634283,4.8982284"
"395";"946";"";"";""
"396";"983";"";"39";"52.36090850000001,4.913981"
"397";"351";"2903 ER";"3";"51.9312683,4.593304499999999"
"398";"1096";"";"";""
"399";"741";"";"41";"53.20033540000001,5.790314899999999"
"400";"940";"";"27";"51.2197271,4.4425351"
"401";"85";"";"2A";"52.379582,4.8943457"
"402";"388";"";"20";"50.840915,4.3763249"
"403";"1271";"";"19";"52.3782752,4.8946708"
"404";"708";"";"";""
"405";"910";"8011 MK";"17-19";"52.5124716,6.0908592"
"406";"256";"8011 AB";"4";"52.5105444,6.0809034"
"407";"143";"6811 KB";"10";"51.98370800000001,5.9044941"
"408";"1343";"";"62-64";"51.5894061,4.9070335"
"409";"998";"";"65";"51.42716129999999,5.4892089"
"410";"177";"";"1";"50.4108831,4.4415467"
"411";"554";"";"";""
"412";"783";"";"4";"52.264598,4.753617999999999"
"413";"821";"";"701E";"52.1131773,5.0788851"
"414";"82";"";"2";"52.6339038,4.7439962"
"415";"1388";"";"";""
"416";"1389";"";"";""
"417";"1293";"";"1";"53.218173,6.567866599999999"
"418";"1144";"";"";""
"419";"106";"6411KC";"30";"50.8879524,5.981056499999999"
"420";"335";"";"";""
"421";"527";"";"17";"51.5867219,5.325764599999999"
"422";"830";"";"";""
"423";"8";"5617 AD";"300";"51.4494335,5.457437"
"424";"598";"";"30";"52.4386538,5.758694999999999"
"425";"689";"";"7";"53.2194084,6.5703197"
"426";"1390";"7701 CJ";"144";"52.6024289,6.4749836"
"427";"748";"9100";"104";"51.1690501,4.142224"
"428";"616";"";"2b";"51.77093199999999,4.926131"
"429";"11";"";"";""
"430";"435";"";"";""
"431";"780";"";"";""
"432";"818";"";"";""
"433";"720";"";"13";"52.15542139999999,5.3882303"
"434";"1241";"6602 HX";"6";"51.8028229,5.736596599999999"
"435";"928";"";"";""
"436";"399";"";"2";"51.56848840000001,4.6424067"
"437";"384";"2312 TV";"123";"52.15955,4.4981482"
"438";"1230";"";"15";"52.09447309999999,5.1154955"
"439";"519";"";"7";"51.5886827,4.775169"
"440";"1391";"6717 ZB";"7";"52.0528123,5.6573261"
"441";"153";"";"3";"51.82196709999999,4.7721953"
"442";"1392";"9401NZ";"2";"52.9915055,6.5651112"
"443";"486";"1075LB";"45";"52.3471167,4.8534169"
"444";"1147";"";"37";"52.4855849,4.6580385"
"445";"1156";"1190 Fores";"208";"50.8096703,4.3259257"
"446";"1059";"";"63";"52.0774524,4.2838748"
"447";"966";"";"6";"51.5877369,4.778665"
"448";"874";"";"";""
"449";"1008";"";"25";"52.5104775,6.0918449"
"450";"1393";"";"34";"51.8384564,5.8556219"
"451";"697";"";"11";"53.33024510000001,6.9262069"
"452";"881";"1017SG";"6-8";"52.3621706,4.8838021"
"453";"643";"1050";"18";"50.8273739,4.3733971"
"454";"1035";"";"30";"52.4132898,4.891600299999999"
"455";"478";"7321 MA";"55";"52.2097855,5.9957973"
"456";"1101";"";"5";"51.8226682,5.4707418"
"457";"671";"3072 AG";"1";"51.90678279999999,4.491027799999999"
"458";"1394";"";"";""
"459";"175";"";"1";"52.3557476,6.6666115"
"460";"852";"";"15";"52.2211474,6.895877599999999"
"461";"800";"7411 TJ";"2";"52.255516,6.1617719"
"462";"509";"5341 HA";"15";"51.7675131,5.5218061"
"463";"1395";"6191JG";"6a";"50.9402284,5.7953842"
"464";"448";"";"11";"51.22771239999999,4.4011157"
"465";"644";"";"";""
"466";"506";"";"21";"51.9224812,4.4771942"
"467";"569";"";"";""
"468";"1103";"1017KG";" 472";"52.3643995,4.8848338"
"469";"707";"";"";""
"470";"121";"7101 BX";"11";"51.9743085,6.7132893"
"471";"421";"3072ZP";"9-11";"51.9013881,4.4841823"
"472";"625";"";"41";"52.31112299999999,5.5334932"
"473";"1396";"";"";""
"474";"790";"";"27";"50.6484637,5.5913984"
"475";"236";"";"2";"51.8113992,5.2506393"
"476";"529";"";"102";"52.3697676,4.8713978"
"477";"470";"5615CN";"50";"51.4290354,5.4846507"
"478";"269";"";"";""
"479";"205";"";"";""
"480";"996";"";"";""
"481";"360";"";"13";"52.3915435,6.448631"
"482";"595";"2000";"15";"51.2261387,4.403846199999999"
"483";"1026";"";"1-3";"52.12968919999999,4.662170300000001"
"484";"155";"";"";""
"485";"539";"";"17";"52.50704899999999,4.956361999999999"
"486";"797";"";"9";"51.7938475,5.9071437"
"487";"257";"";"6";"51.195927,4.3791155"
"488";"855";"";"";""
"489";"725";"";"";""
"490";"163";"1019BR";"1";"52.37834909999999,4.913113399999999"
"491";"750";"";"";""
"492";"1240";"";"";""
"493";"678";"";"";""
"494";"1397";"";"50";"52.1108117,4.2831312"
"495";"199";"";"49";"52.013485,4.360664499999999"
"496";"161";"9203 KL";"24";"53.1026976,6.0970396"
"497";"1398";"7622CP";"23";"52.3024998,6.7582913"
"498";"1399";"4815 HC";"12";"51.59924600000001,4.7646774"
"499";"877";"";"175";"52.0764393,4.3159296"
"500";"1080";"";"31";"52.1794798,5.374992199999999"
"501";"26";"";"178";"52.3667165,4.899332500000001"
"502";"741";"";"61&amp; 63";"53.20026739999999,5.7912248"
"503";"359";"5705 AR";"21a";"51.4740038,5.6619567"
"504";"336";"";"2A";"51.895656,4.1595146"
"505";"628";"9711 NV";"44";"53.21708090000001,6.5701624"
"506";"1338";"";"1";"51.6989627,5.292085399999999"
"507";"294";"";"5";"52.36541330000001,4.8960406"
"508";"96";"";"";""
"509";"50";"1621 LE";"4";"52.6417551,5.0507529"
"510";"1186";"";"";""
"511";"898";"";"4";"52.0912527,5.1214587"
"512";"82";"";"1";"52.6334908,4.743610599999999"
"513";"26";"1017 AC";"56-58";"52.3668924,4.895853199999999"
"514";"292";"";"";""
"515";"68";"";"";""
"516";"1400";"";"";""
"517";"423";"";"";""
"518";"164";"";"14";"50.64081119999999,5.5702561"
"519";"1100";"";"";""
"520";"193";"";"133";"52.372636,4.8789349"
"521";"1401";"";"43";"51.9126585,4.4233247"
"522";"599";"";"";""
"523";"165";"";"";""
"524";"1336";"";"";""
"525";"1204";"";"";""
"526";"1151";"";"23";"52.37343070000001,4.8980328"
"527";"921";"";"";""
"528";"1344";"";"";""
"529";"310";"";"2tm 6";"52.3939777,4.9111601"
"530";"924";"";"";""
"531";"1402";"";"";""
"532";"683";"";"";""
"533";"198";"5038 CN";"9";"51.5573491,5.0922885"
"534";"884";"";"10";"50.77330689999999,6.0875556"
"535";"17";"";"590";"52.31216209999999,4.9446689"
"536";"862";"";"";""
"537";"406";"";"82";"51.9876289,5.9179185"
"538";"1163";"";"";""
"539";"178";"";"3";"52.4383881,4.824681399999999"
"540";"920";"";"";""
"541";"947";"";"";""
"542";"551";"";"1";"50.9068054,6.0254905"
"543";"1037";"";"3";"51.9940035,4.209595699999999"
"544";"631";"";"165";"52.3258234,5.5485492"
"545";"860";"";"106";"52.37867749999999,4.8835565"
"546";"1097";"";"";""
"547";"687";"";"1";"52.2195782,5.9529489"
"548";"1130";"7411NH";"2-4";"52.2535563,6.1531284"
"549";"1297";"";"18";"52.5119856,6.0920679"
"550";"999";"";"2";"52.2041366,6.7995366"
"551";"293";"";"134";"52.35426409999999,4.8551072"
"552";"811";"2132 TZ";"3";"52.3011962,4.6966385"
"553";"677";"";"63";"51.9156987,4.476338399999999"
"554";"310";"";"4";"52.3933504,4.9108201"
"555";"514";"";"";""
"556";"230";"";"91";"52.3701878,4.9053282"
"557";"676";"";"8";"52.3877329,6.0468755"
"558";"1310";"7201 AA";"1";"52.1483395,6.2013693"
"559";"880";"";"58";"52.1058546,4.2745786"
"560";"690";"";"";""
"561";"1269";"3431 LZ";"6";"52.02757390000001,5.0839736"
"562";"615";"1902 EL";"30";"52.5458742,4.6614715"
"563";"1050";"";"";""
"564";"363";"";"44";"52.6366023,4.7237107"
"565";"1061";"";"";""
"566";"1087";"";"10";"52.0970518,5.1237525"
"567";"605";"8601 GR";"28";"53.031775,5.656280499999999"
"568";"967";"";"";""
"569";"1002";"";"48";"52.3822319,4.8789932"
"570";"1262";"7741 GC";"1";"52.661549,6.741"
"571";"414";"";"";""
"572";"463";"";"1";"51.8771171,5.8437928"
"573";"567";"7442 MA";"7";"52.3638791,6.4618078"
"574";"1169";"";"";""
"575";"45";"";"";""
"576";"822";"";"1";"52.6249245,4.7354262"
"577";"57";"";"";""
"578";"248";"";"2";"52.9899909,6.9532437"
"579";"1051";"";"";""
"580";"1128";"";"12";"52.3348077,4.9135151"
"581";"90";"";"36";"52.0953261,5.1168235"
"582";"1217";"";"2";"52.1184915,5.1025885"
"583";"413";"";"";""
"584";"1403";"";"4a";"52.0743558,4.6615985"
"585";"1259";"";"12";"52.053851,4.242513"
"586";"930";"";"37a";"51.644259,4.8635493"
"587";"1086";"";"";""
"588";"1070";"";"157";"53.1536593,6.757653299999999"
"589";"1123";"";"107";"52.3832594,4.7800691"
"590";"454";"";"";""
"591";"183";"";"";""
"592";"133";"";"3-5";"52.5587917,5.915448"
"593";"457";"";"";""
"594";"758";"";"21";"51.2114668,4.4217925"
"595";"831";"";"345";"52.0622841,4.2729728"
"596";"987";"1315 JS";"2";"52.37345240000001,5.2169967"
"597";"526";"";"";""
"598";"1045";"6814 BT";"3";"51.9895724,5.905266399999999"
"599";"296";"1501NE";"2";"52.4397704,4.8264813"
"600";"652";"";"";""
"601";"208";"";"34";"52.0182927,4.4337534"
"602";"888";"";"137";"52.3467747,4.9111041"
"603";"124";"";"26";"52.3402192,5.6215001"
"604";"71";"";"2 - 4";"52.458308,6.568461"
"605";"342";"";"3-5";"51.8309379,4.9782095"
"606";"1404";"";"1";"51.1668559,4.1390803"
"607";"379";"";"";""
"608";"876";"";"";""
"609";"1207";"9203 CD";"34";"53.1070658,6.1025781"
"610";"1349";"";"";""
"611";"865";"1017PT";"26";"52.3642136,4.882012899999999"
"612";"1125";"";"29";"52.3697408,4.9611728"
"613";"905";"";"";""
"614";"1074";"1941 JG";"9";"52.4809513,4.6582016"
"615";"2";"";"2";"52.377707,4.893807"
"616";"1252";"";"";""
"617";"935";"";"";""
"618";"206";"";"42";"50.6375828,5.5808744"
"619";"19";"";"";""
"620";"1405";"9900";"10";"51.1866992,3.5627283"
"621";"1406";"";"";""
"622";"1071";"";"";""
"623";"1165";"1131 ZH";"15(ingang aan de Zeestraat)";"52.49450040000001,5.0727505"
"624";"1084";"";"104";"52.3419849,4.9648622"
"625";"717";"47559";"1";"51.8261228,6.018818899999999"
"626";"1268";"";"35";"50.9691845,5.8205557"
"627";"191";"";"";""
"628";"794";"";"10";"52.0931467,4.2834264"
"629";"741";"";"91";"53.20027270000001,5.7916026"
"630";"977";"";"1";"50.8499946,2.8758959"
"631";"548";"";"";""
"632";"1407";"3740";"25";"50.865924,5.5121712"
"633";"715";"";"41";"51.90721970000001,4.342728699999999"
"634";"455";"";"102";"52.37738659999999,4.8871905"
"635";"218";"";"30-6";"52.10093819999999,6.6430606"
"636";"184";"";"2";"52.5137965,6.098541000000001"
"637";"730";"";"";""
"638";"365";"";"";""
"639";"1238";"";"122";"52.0144913,5.678071099999999"
"640";"353";"";"2B";"52.0755142,5.1069414"
"641";"101";"4461 DD";"1";"51.504306,3.8873444"
"642";"1081";"";"";""
"643";"1003";"";"";""
"644";"513";"2000";"1";"51.2157896,4.40989"
"645";"798";"";"";""
"646";"597";"";"10";"51.37103870000001,6.1684579"
"647";"863";"";"10";"51.37978409999999,5.3296454"
"648";"229";"";"";""
"649";"295";"";"3";"52.37373119999999,4.6501058"
"650";"1237";"";"";""
"651";"117";"";"49";"52.1683174,5.2824727"
"652";"591";"";"";""
"653";"1305";"";"";""
"654";"1013";"6191 NC";"12";"50.94692569999999,5.7872663"
"655";"326";"";"52";"53.2167594,6.5645506"
"656";"560";"";"";""
"657";"52";"";"";""
"658";"722";"";"";""
"659";"60";"1019BL";"576";"52.37593709999999,4.9277731"
"660";"1253";"";"10";"52.40182900000001,4.9163216"
"661";"1203";"";"21";"52.7931718,6.889474799999999"
"662";"1408";"";"";""
"663";"285";"";"";""
"664";"1019";"";"";""
"665";"1191";"";"8 In de brug ";"52.360854,4.8769867"
"666";"299";"";"17";"52.6978103,5.2357776"
"667";"926";"";"";""
"668";"1072";"";"";""
"669";"1308";"";"";""
"670";"694";"";"3";"52.08943319999999,5.100387599999999"
"671";"1198";"5381KC";"1";"51.64933809999999,5.9507014"
"672";"349";"";"";""
"673";"21";"";"140";"52.1544444,5.3045959"
"674";"1256";"1000";"110";"50.8472558,4.3488758"
"675";"1229";"2421 EX";"2";"52.14973579999999,4.7755692"
"676";"317";"";"52";"52.1088475,4.2744763"
"677";"520";"";"";""
"678";"197";"";"9";"52.3008102,5.2345511"
"679";"35";"";"";""
"680";"524";"1073 LT";"130";"52.3533118,4.9022744"
"681";"255";"";"39";"51.4779954,5.6572096"
"682";"891";"";"";""
"683";"906";"3014 GB";"17-19";"51.91697,4.47175"
"684";"1409";"";"1-3";"52.1943758,5.4317023"
"685";"976";"";"13";"51.1893499,5.9806602"
"686";"5";"";"83";"52.4038461,4.5441459"
"687";"145";"";"";""
"688";"58";"";"19";"52.0415311,6.6185098"
"689";"623";"";"";""
"690";"571";"";"";""
"691";"752";"";"62";"50.8525832,4.3470491"
"692";"103";"";"11";"52.2840954,4.8362187"
"693";"793";"";"53 - 55";"51.8653694,4.5367828"
"694";"909";"";"53";"51.8863304,5.6022612"
"695";"1314";"";"9";"50.8552302,4.3511771"
"696";"186";"";"1";"51.05944419999999,3.7151877"
"697";"275";"";"10b";"52.639945,5.059613"
"698";"832";"";"9";"52.3712044,4.524324399999999"
"699";"861";"3811CP";"5";"52.1569418,5.3907444"
"700";"1410";"";"";""
"701";"945";"";"";""
"702";"358";"3512 BL";"14";"52.0938588,5.1224057"
"703";"176";"";"2";"52.2493636,4.4369947"
"704";"580";"";"";""
"705";"1300";"";"";""
"706";"252";"";"1";"52.71104219999999,5.75331"
"707";"634";"";"";""
"708";"174";"";"";""
"709";"239";"";"34";"51.2202813,4.411274300000001"
"710";"496";"";"";""
"711";"242";"";"40A";"51.7042601,4.8545375"
"712";"627";"";"36";"50.8857292,3.8849744"
"713";"960";"";"";""
"714";"973";"";"43";"51.4835909,5.670605699999999"
"715";"1077";"";"174";"51.5913806,4.7849371"
"716";"622";"";"4";"52.3006579,5.6175485"
"717";"432";"";"";""
"718";"1038";"1012KD";"75-87";"52.3699841,4.89349"
"719";"74";"";"";""
"720";"782";"";"";""
"721";"1411";"1135 PZ";"7";"52.5183052,5.0711748"
"722";"384";"2312 TX";"36";"52.1587621,4.4972246"
"723";"333";"";"26";"52.3617423,4.9264331"
"724";"26";"1017 AC";"100";"52.3669598,4.8967538"
"725";"172";"";"5";"52.582543,4.8510399"
"726";"107";"";"11";"51.5671168,5.7063388"
"727";"1063";"3911 AT";"69";"51.9567942,5.583761399999999"
"728";"802";"3454 PB";"1";"52.0885555,5.0433701"
"729";"1248";"1000";"208";"50.8353996,4.344653099999999"
"730";"883";"";"2";"53.225208,6.567715199999999"
"731";"111";"";"14";"51.7327747,5.1389979"
"732";"1306";"";"";""
"733";"302";"";"";""
"734";"713";"";"";""
"735";"488";"";"";""
"736";"445";"";"30";"52.0718031,5.109776999999999"
"737";"42";"";"46";"52.274742,4.973522"
"738";"1219";"";"215";"52.598014,4.7084016"
"739";"25";"2512 EW";"27";"52.074816,4.3064871"
"740";"56";"";"29";"51.0498225,3.7233145"
"741";"515";"3083 CW";"-64";"51.8884505,4.489522"
"742";"212";" 1052 BA";"100";"52.3830616,4.878137199999999"
"743";"1313";"";"";""
"744";"1412";"";"";""
"745";"784";"";"79";"52.2618307,6.7075897"
"746";"1320";"";"";""
"747";"985";"";"66";"51.3111477,4.8984999"
"748";"309";"";"";""
"749";"532";"3500";"9";"50.9401523,5.3524746"
"750";"964";"2273BW";"95";"52.074627,4.361902"
"751";"23";"9620";"18-20";"50.8698319,3.8124367"
"752";"751";"5111 CM";"5-7";"51.4415489,4.9265494"
"753";"233";"2061 AG";"2";"52.4112485,4.6080616"
"754";"419";"";"";""
"755";"440";"9743 DA";"6";"53.21048529999999,6.5391941"
"756";"557";"";"";""
"757";"474";"";"";""
"758";"163";"1019BR";"3";"52.37815209999999,4.912828999999999"
"759";"653";"";"";""
"760";"407";"";"212c";"52.41060210000001,4.9339303"
"761";"120";"5801 BV";"1";"51.5252168,5.973893299999999"
"762";"437";"8531MV";"2";"52.8529984,5.706398"
"763";"224";"3072 AM";"25";"51.899265,4.471233"
"764";"484";"3771 CJ";"32";"52.1414215,5.581885499999999"
"765";"755";"";"5";"52.2341683,6.585494400000001"
"766";"633";"";"";""
"767";"154";"6211 AS";"7";"50.8570704,5.6905193"
"768";"116";"2180";"252";"51.281498,4.4402062"
"769";"1020";"";"216";"52.3716309,4.889134600000001"
"770";"655";"";"32";"52.0788508,4.3079018"
"771";"179";"";"35";"50.8872455,4.7188108"
"772";"438";"";"1";"51.2064822,4.387147"
"773";"450";"3000";"1";"50.90392139999999,4.6739833"
"774";"1114";" 1017 DA";"16";"52.3661452,4.8990956"
"775";"1413";"2411 CW";"29";"52.0838968,4.7482364"
"776";"397";"9000";"6";"51.05595539999999,3.7285434"
"777";"1150";"";"2a";"51.9035255,4.349409"
"778";"459";"";"6";"52.814115,6.1242803"
"779";"867";"";"16";"52.6259922,4.7382944"
"780";"76";"";"";""
"781";"1414";"7478 AG";"8";"52.2014597,6.551044699999999"
"782";"303";"";"33";"52.3836837,4.638417700000001"
"783";"562";"";"26";"50.64165380000001,5.5691482"
"784";"728";"";"";""
"785";"626";"6211 LE";"47";"50.8499531,5.6880628"
"786";"1415";"";"3";"52.0980918,5.1145532"
"787";"604";"3512 EJ";"24";"52.0936033,5.127607300000001"
"788";"1127";"3511 LJ";"11-12";"52.0901509,5.1171012"
"789";"397";"";"9";"51.05582769999999,3.72867"
"790";"1168";"";"21";"50.837567,4.3457417"
"791";"1129";"1211 CZ";"23";"52.2256474,5.177763199999999"
"792";"489";"6811 BP";"10";"51.98095610000001,5.913529"
"793";"291";"";"4a";"51.701167,4.8616617"
"794";"1040";"";"";""
"795";"287";"5401 EC";"13";"51.6632542,5.610232"
"796";"1260";"";"";""
"797";"763";"";"";""
"798";"742";"9203 ZN";"16";"53.1084587,6.0902416"
"799";"98";"";"";""
"800";"1208";"";"";""
"801";"654";"3011AM";"15";"51.92089929999999,4.4807755"
"802";"949";"3811 WK";"60";"52.1593394,5.3922785"
"803";"781";"";"";""
"804";"1416";"";"21";"52.1409807,5.2187432"
"805";"1417";"";"";""
"806";"1418";"";"";""
"807";"517";"";"";""
"808";"688";"3994 EE";"69";"52.03415889999999,5.1796641"
"809";"901";"";"5";"52.2140011,5.959746399999999"
"810";"1005";"";"";""
"811";"1315";"";"96";"52.3527196,4.6130791"
"812";"170";"";"";""
"813";"147";"1091GR ";"150";"52.3537887,4.911625"
"814";"1210";"";"";""
"815";"420";"";"20-22";"51.986808,4.321092699999999"
"816";"764";"";"2";"52.2277255,4.5243723"
"817";"1121";"";"266";"51.44631260000001,3.5642412"
"818";"1302";"";"10";"52.3670793,5.218826"
"819";"221";"3711 AB";"70";"52.0878428,5.3028882"
"820";"403";"2741 MW";"1";"52.04178350000001,4.6514253"
"821";"89";"8911 HB";"26";"53.2021078,5.797479399999999"
"822";"675";"3701 HZ";"106";"52.0859438,5.2390726"
"823";"1068";"";"";""
"824";"415";"";"";""
"825";"1419";"7211 LC";"25";"52.1722925,6.2053143"
"826";"182";"";"1";"51.5895496,4.528099099999999"
"827";"192";"2311CS";"43";"52.1623114,4.4891473"
"828";"1056";"";"";""
"829";"789";"";"";""
"830";"48";"";"150";"51.2333576,4.401971899999999"
"831";"260";"";"";""
"832";"308";"";"";""
"833";"1325";"";"35";"53.21820169999999,6.568662799999999"
"834";"709";"";"";""
"835";"546";"1092AA";"51";"52.36123019999999,4.916320499999999"
"836";"979";"";"";""
"837";"1420";"";"";""
"838";"352";"";"2";"51.0499922,3.7303853"
"839";"1421";"";"55a";"52.78629859999999,6.8939296"
"840";"81";"";"";""
"841";"601";"";"165a";"52.0757663,4.301232199999999"
"842";"15";"";"";""
"843";"941";"";"18";"51.9233037,4.4789512"
"844";"1145";"";"";""
"845";"91";"";"182";"52.3528404,4.9066233"
"846";"381";"";"15";"52.3758248,4.5264134"
"847";"119";"";"3";"51.2539713,5.7048119"
"848";"606";"3072 MD";"99";"51.9061081,4.4893886"
"849";"355";"";"";""
"850";"922";"";"4";"51.32380939999999,5.3596724"
"851";"1422";"";"1";"50.84536079999999,5.6944503"
"852";"429";"";"10";"53.1367327,6.4312063"
"853";"505";"";"";""
"854";"1041";"";"76";"51.0397092,3.725514199999999"
"855";"1345";"";"22";"52.1601509,6.417537599999999"
"856";"729";"";"";""
"857";"86";"2011";"31";"52.3822114,4.6364206"
"858";"531";"";"";""
"859";"1423";"";"156";"52.3915732,4.8749205"
"860";"94";"5541 KB";"69";"51.3623261,5.162067899999999"
"861";"151";"";"29";"51.8228115,5.0294143"
"862";"1258";"";"";""
"863";"55";"";"";""
"864";"1166";"";"";""
"865";"26";"1018 EM";"115-125";"52.3619174,4.9046337"
"866";"115";"1094 CC";"62";"52.36524250000001,4.9360272"
"867";"102";"";"";""
"868";"39";"6541 AJ";"22";"51.8534082,5.8467221"
"869";"516";"5211 VD";"100";"51.6955245,5.2970776"
"870";"1105";"";"27 hs";"52.3543044,4.8541058"
"871";"280";"";"30";"52.6311945,4.7433504"
"872";"78";"7607 ZD";"32h";"51.8429027,5.8576703"
"873";"1067";"";"186";"52.3830782,5.7897414"
"874";"1015";"";"1";"52.5116188,4.674346"
"875";"1483";"";"";""
"876";"222";"";"47";"52.3669497,4.8682321"
"877";"1332";"";"";""
"878";"1221";"";"11";"52.38145189999999,4.6386851"
"879";"641";"";"";""
"880";"1295";"3284 BE";"1";"51.7337369,4.3570606"
"881";"395";"4811HV";"1";"51.5874302,4.777012"
"882";"608";"";"1";"51.4250528,5.559667699999999"
"883";"1276";"";"4";"50.644143,5.5817929"
"884";"961";"";"";""
"885";"774";"";"";""
"886";"1424";"6981CP";"41";"52.0155322,6.1357794"
"887";"1265";"";"50";"52.3704885,4.8975985"
"888";"332";"";"1";"51.8259772,5.8361904"
"889";"1425";"3833AV";"3";"52.1418839,5.4211651"
"890";"1000";"";"2";"51.8856327,5.4358773"
"891";"1104";"";"";""
"892";"811";"2132TZ";"3-9";"52.3011962,4.6966385"
"893";"48";"";"3";"51.2331489,4.4033273"
"894";"576";"";"";""
"895";"603";"";"3";"52.383892,4.902317"
"896";"1426";"2000";"20";"51.21002319999999,4.3929006"
"897";"411";"";"";""
"898";"537";"";"14";"51.7635376,5.5219418"
"899";"943";"";"163";"52.3700914,4.877967"
"900";"1427";"7607CH";"129";"52.3544006,6.666087399999999"
"901";"441";"";"";""
"902";"1020";"";"2";"52.3774214,4.8941478"
"903";"1141";"";"";""
"904";"543";"";"";""
"905";"667";"";"";""
"906";"1006";"";"";""
"907";"1428";"";"";""
"908";"392";"";"44";"52.0825031,4.3955896"
"909";"825";"";"";""
"910";"1429";"";"17";"51.5888,4.7746938"
"911";"1172";"";"3";"52.34325159999999,5.6285557"
"912";"833";"1017 RH";"6-8";"52.3638904,4.8853015"
"913";"1330";"8021DA";"7";"52.5169967,6.0941697"
"914";"159";"";"";""
"915";"18";"";"10";"52.0470817,4.3279656"
"916";"1287";"";"243";"52.375206,4.896193999999999"
"917";"1274";"2000";"30";"51.2279083,4.4079244"
"918";"72";"2361 ET";"80";"52.1985065,4.5036486"
"919";"650";"";"";""
"920";"1430";"";"";""
"921";"350";"";"42";"51.92540589999999,4.4745889"
"922";"649";"B-1000";"135";"50.8539264,4.3541238"
"923";"391";"";"78";"52.9603155,5.920469"
"924";"1431";"7411RC";"254-256";"52.256105,6.154166099999999"
"925";"1346";"";"45";"52.0461178,5.6674158"
"926";"1083";"";"1";"52.669368,4.701002799999999"
"927";"775";"";"31";"51.9229747,4.476321599999999"
"928";"188";"";"20";"52.94240550000001,6.6125802"
"929";"337";"";"1";"50.7730669,6.0868151"
"930";"497";"";"";""
"931";"682";"";"11 B";"51.8287908,4.972631"
"932";"1340";"";"10";"51.3841778,5.7638539"
"933";"1089";"";"";""
"934";"1432";"1251 CG";"97";"52.2628506,5.2096767"
"935";"274";"6411 AS";"145";"50.8866476,5.972869999999999"
"936";"1046";"";"4";"52.255413,5.264658"
"937";"1106";"";"1";"51.0758892,4.717184"
"938";"417";"";"";""
"939";"1255";"";"";""
"940";"400";"1096 AN";"48";"52.337032,4.924842"
"941";"1066";"";"";""
"942";"153";"";"4";"51.8226702,4.7718579"
"943";"247";"";"";""
"944";"1236";"";"95";"51.1757612,2.8766279"
"945";"1433";"";"19";"51.6860164,5.3084028"
"946";"1023";"";"39";"51.92483060000001,4.474454"
"947";"895";"3076 ET";"300";"51.876737,4.5191155"
"948";"32";"2000";"4";"51.2131945,4.4042352"
"949";"762";"";"5";"52.0832474,4.2998525"
"950";"122";"";"";""
"951";"114";"";"";""
"952";"907";"1851HB";"2";"52.6065067,4.713317099999999"
"953";"547";"";"";""
"954";"902";"1315 HX";"2";"52.3730001,5.221667399999999"
"955";"1312";"8200";"27";"51.2013028,3.2084187"
"956";"1170";"2595 CA";"1";"52.0810623,4.332220599999999"
"957";"889";"";"";""
"958";"703";"";"505";"52.0971545,4.2586126"
"959";"49";"";"79";"51.8437741,5.861994399999999"
"960";"843";"";"";""
"961";"231";"";"";""
"962";"994";"9000";"31-35";"51.0561856,3.7300295"
"963";"433";"";"";""
"964";"809";"1033WB";"59";"52.3991582,4.8928756"
"965";"577";"";"14";"51.2156454,4.4031166"
"966";"770";"";"48";"51.040567,3.726529"
"967";"501";"";"";""
"968";"297";"";"";""
"969";"592";"5038BD";"49";"51.5570217,5.0864126"
"970";"1434";"6700";"2";"49.6806712,5.806028"
"971";"350";"";"20";"51.9252018,4.4759777"
"972";"216";"3511BJ";"22";"52.0919526,5.1155306"
"973";"1124";"";"";""
"974";"761";"";"125";"51.9066646,4.459165"
"975";"62";"";"15a";"51.90235939999999,4.4509503"
"976";"1435";"";"";""
"977";"1024";"";"";""
"978";"511";"";"1";"52.3530759,4.906494599999999"
"979";"1018";"";"1";"51.5499339,5.109818799999999"
"980";"1247";"";"";""
"981";"427";"";"2";"51.5093563,5.493607"
"982";"31";"";"30";"51.4971469,3.6064417"
"983";"462";"";"";""
"984";"181";"";"";""
"985";"972";"";"";""
"986";"1221";"2011 HH";"9";"52.3818005,4.6393151"
"987";"283";"";"";""
"988";"516";"5211 VD";"45";"51.6956048,5.297739399999999"
"989";"1149";"";"";""
"990";"158";"";"";""
"991";"1010";"";"";""
"992";"919";"";"";""
"993";"162";"";"";""
"994";"263";"";"122";"52.3773964,4.642189399999999"
"995";"1220";"";"21";"52.2525114,6.1612915"
"996";"550";"";"";""
"997";"1246";"6511NW";"42";"51.8427075,5.864827399999999"
"998";"357";"";"16";"52.3648843,4.8822701"
"999";"167";"";"1";"52.3811025,4.9128378"
"1000";"237";"";"";""
"1001";"535";"";"234";"50.7674649,2.7812764"
"1002";"1079";"";"";""
"1003";"198";"";"48";"51.5571326,5.0924179"
"1004";"943";"1017 PH";"234/A";"52.3648365,4.8812733"
"1005";"732";"3081AE";"1-2";"51.8980514,4.4949935"
"1006";"196";"";"";""
"1007";"1436";"";"10";"52.2224537,6.8710128"
"1008";"325";"";"";""
"1009";"769";"B-2000";"5-7";"51.2273889,4.4102043"
"1010";"743";"";"12";"51.9068193,4.4684393"
"1011";"607";"";"";""
"1012";"816";"";"";""
"1013";"278";"";"2";"51.70099270000001,5.290412"
"1014";"854";"";"";""
"1015";"244";"1033WB";"102";"52.3995785,4.896806"
"1016";"346";"";"43";"52.7198731,6.475524999999999"
"1017";"706";"3812 ED";"100";"52.1604868,5.3816352"
"1018";"914";"";"";""
"1019";"40";"";"1";"50.8251723,3.2609756"
"1020";"1267";"3311 VE";"55";"51.8128789,4.6598864"
"1021";"680";"2000";"10";"51.23432740000001,4.4100115"
"1022";"642";"1781 AS";"63";"52.95836809999999,4.7691218"
"1023";"34";"";"7";"51.9636329,5.658070299999999"
"1024";"1073";"";"1";"52.3699743,4.919345799999999"
"1025";"670";"";"5";"51.5864516,4.7746265"
"1026";"1052";"4331 LP";"15";"51.49827930000001,3.6085597"
"1027";"757";"";"";""
"1028";"984";"";"75";"52.4445612,4.8188292"
"1029";"434";"2312 CS";"8";"52.1630072,4.4885398"
"1030";"1142";"";"29";"52.2566134,5.2262225"
"1031";"1437";"";"62";"51.8480077,5.8623691"
"1032";"771";"";"1";"49.6795306,5.8017861"
"1033";"334";"";"2";"51.6881429,5.312991999999999"
"1034";"339";"";"24-25";"52.8456228,5.708467"
"1035";"1438";"";"1";"53.2122543,6.5656664"
"1036";"1223";"";"";""
"1037";"1028";"";"";""
"1038";"724";"";"210";"50.8370804,4.3915771"
"1039";"857";"";"26";"51.0571369,3.7265808"
"1040";"480";"";"4";"51.04611209999999,4.725512"
"1041";"777";"";"1";"52.0400606,5.6785165"
"1042";"696";"";"198";"52.0906726,5.0965565"
"1043";"51";"";"13";"53.0931609,6.6659061"
"1044";"472";"";"3a";"51.9056715,6.1180539"
"1045";"954";"";"";""
"1046";"600";"";"8";"50.8845663,3.4325247"
"1047";"609";"";"";""
"1048";"699";"1051CE";"923";"52.3817988,4.8673176"
"1049";"900";"5038 TN";"1";"51.5540392,5.0832146"
"1050";"412";"";"37";"52.2658259,6.789654"
"1051";"624";"2312CH";"32";"52.1636719,4.4859655"
"1052";"1245";"";"";""
"1053";"573";"2300";"42";"51.3251022,4.9435836"
"1054";"563";"";"";""
"1055";"123";"2512 GA";"12";"52.0747641,4.307664100000001"
"1056";"986";"";"";""
"1057";"1439";"";"21";"52.14458,5.213718999999999"
"1058";"621";"";"5";"51.9447705,4.8537485"
"1059";"190";"";"25";"51.9630936,5.891795"
"1060";"1157";"1210";"236";"50.8548935,4.365507099999999"
"1061";"141";"";"9";"52.3337053,6.5201924"
"1062";"136";"";"6";"51.06745309999999,3.1009356"
"1063";"277";"1012RT";"282";"52.3711177,4.8899519"
"1064";"377";"";"";""
"1065";"1034";"";"7";"52.04277459999999,4.3936443"
"1066";"611";"";"4";"52.35365729999999,6.670950299999999"
"1067";"1440";"";"";""
"1068";"545";"";"";""
"1069";"894";"1931 VL";"52";"52.6163663,4.6250934"
"1070";"842";"";"";""
"1071";"134";"";"";""
"1072";"314";"1000";"86C";"50.8648307,4.3491892"
"1073";"733";"6811GW";"29";"51.9822463,5.904315299999999"
"1074";"610";"6921BL";"9";"51.9492085,6.022761099999999"
"1075";"566";"";"4b";"51.8671356,4.6037325"
"1076";"447";"";"";""
"1077";"139";"";"5";"52.081464,4.3101892"
"1078";"1232";"";"";""
"1079";"915";"";"";""
"1080";"614";"";"84";"52.5584591,5.9143576"
"1081";"1289";"";"";""
"1082";"305";"";"";""
"1083";"1184";"";"";""
"1084";"1441";"2100";"246";"51.2152997,4.4709568"
"1085";"1442";"3744AA";"1";"52.1961148,5.277025999999999"
"1086";"528";"1047HH";"76";"52.41023300000001,4.748897299999999"
"1087";"990";"";"";""
"1088";"390";"5611 ER";"81";"51.4361912,5.4827708"
"1089";"118";"";"1";"50.4561205,4.8564904"
"1090";"1443";"";"";""
"1091";"100";"";"";""
"1092";"565";"5501 KA";"3";"51.4211083,5.4048854"
"1093";"271";"";"11";"52.1580446,4.4932264"
"1094";"602";"";"4";"51.8324771,4.6840962"
"1095";"829";"";"";""
"1096";"327";"";"";""
"1097";"209";"2711 EK";"10";"52.062348,4.4938933"
"1098";"530";"4501 BM";"17";"51.3254099,3.4890831"
"1099";"38";"";"";""
"1100";"1200";"";"";""
"1101";"259";"5711GB";"71";"51.3813162,5.714331"
"1102";"446";"";"";""
"1103";"347";"";"";""
"1104";"586";"";"1";"52.37085099999999,4.843855599999999"
"1105";"1175";"";"";""
"1106";"1235";"";"";""
"1107";"7";"";"20Oudeschild";"53.0416525,4.8517877"
"1108";"275";"";"3";"52.6397573,5.059392799999999"
"1109";"241";"";"7tent";"52.3982876,4.5703605"
"1110";"130";"";"151";"52.2470132,6.1688344"
"1111";"542";"";"";""
"1112";"1285";"2140";"327";"51.214111,4.4414374"
"1113";"686";"";"63";"52.3703762,4.8936177"
"1114";"957";"";"";""
"1115";"4";"";"15";"52.6380895,4.7502926"
"1116";"288";"";"3b";"51.423496,4.326449"
"1117";"1139";"3032 AH ";"26";"51.9266376,4.4788256"
"1118";"1444";"";"";""
"1119";"1179";"";"";""
"1120";"556";"";"2";"51.4841513,5.1347401"
"1121";"666";"";"3";"51.68672549999999,5.7822428"
"1122";"779";"2000";"46/4";"51.2138356,4.4003873"
"1123";"495";"";"7";"51.9476621,5.2262714"
"1124";"841";"1012 XM";"11";"52.368083,4.8902222"
"1125";"868";"";"";""
"1126";"1445";"7411MC";"2";"52.2460027,6.169016099999999"
"1127";"123";"";"27";"52.0750468,4.3066658"
"1128";"836";"";"58";"51.9824413,5.9167694"
"1129";"805";"";"1";"51.1113191,3.7401648"
"1130";"1115";"";"1";"52.4020349,4.893642199999999"
"1131";"929";"1014DA";"23";"52.3859372,4.8714395"
"1132";"280";" 1811GP";"2c";"52.63259559999999,4.7439505"
"1133";"916";"";"455";"51.0647349,3.7168403"
"1134";"1107";"";"12";"52.5109322,5.4762578"
"1135";"1159";"2030";"1";"51.2421578,4.3953772"
"1136";"92";"";"25-26";"52.1560652,5.3894557"
"1137";"812";"";"77";"52.0513527,6.101172699999999"
"1138";"1316";"";"";""
"1139";"398";"";"";""
"1140";"1446";"2600";"126";"51.1970945,4.4221334"
"1141";"903";"9000";"16";"51.0543347,3.722645899999999"
"1142";"37";"";"";""
"1143";"992";"";"6a";"52.2495359,6.2867276"
"1144";"1027";"9641 AD";"5a";"53.1073023,6.8763554"
"1145";"981";"";"";""
"1146";"173";"";"";""
"1147";"160";"5611 DE";"21";"51.4376604,5.4805452"
"1148";"452";"";"";""
"1149";"1324";"1078 GZ";"1";"52.3438749,4.8914235"
"1150";"24";"";"12";"51.6871685,5.070764899999999"
"1151";"1182";"3011WN";"101t/o";"51.91736969999999,4.4845315"
"1152";"128";"3512BW";"8";"52.0946443,5.1221719"
"1153";"925";"";"58";"51.5785879,4.7883907"
"1154";"1447";"3764BM";"46A";"52.18061489999999,5.3042007"
"1155";"618";"";"9";"52.0487234,5.668540999999999"
"1156";"1196";"";"150-154";"52.116958,4.279652599999999"
"1157";"938";"";"144";"52.14612820000001,5.4051342"
"1158";"33";"9000";"13";"51.0489689,3.7277815"
"1159";"284";"";"157 - 159";"52.3711588,4.8971626"
"1160";"214";"";"3";"51.039483,5.329801"
"1161";"512";"";"1";"52.4685532,4.5681916"
"1162";"1322";"";"4-6";"52.3871283,4.8700218"
"1163";"1136";"6131 EL";"32";"50.9981482,5.871309399999999"
"1164";"963";"8331 GM";"1";"52.7900544,6.114840099999999"
"1165";"137";"3581 GK";"201";"52.0942091,5.1305584"
"1166";"953";"";"";""
"1167";"685";"2013DN";"2";"52.38299199999999,4.6286359"
"1168";"1135";"";"13";"52.2742698,5.2416624"
"1169";"553";"1000";"23";"50.84358659999999,4.3596911"
"1170";"570";"1012JA";"129";"52.37399139999999,4.8963119"
"1171";"991";"";"8-12";"52.3683863,4.911190299999999"
"1172";"668";"";"150";"52.077222,4.3178426"
"1173";"1448";"8000";"1";"51.20824700000001,3.224189"
"1174";"142";"1102DR";"240";"52.3145539,4.9602187"
"1175";"681";"2018";"1";"51.2059603,4.4317433"
"1176";"820";"";"";""
"1177";"507";"8161 CP";"25";"52.3478959,5.9885582"
"1178";"672";"";"";""
"1179";"651";"";"8-10";"52.2521134,6.152951799999999"
"1180";"490";"";"";""
"1181";"684";"";"";""
"1182";"956";"";"32-34";"53.2162383,6.573221999999999"
"1183";"944";"";"18";"52.128837,5.4269"
"1184";"552";"3024";"45";"51.9078623,4.4614745"
"1185";"1449";"";"";""
"1186";"187";"";"";""
"1187";"394";"3020";"15";"50.90650609999999,4.6763493"
"1188";"714";"4153 BS";"26";"51.89309530000001,5.1920554"
"1189";"885";"";"";""
"1190";"362";"";"30";"51.3704916,6.168097599999999"
"1191";"91";"";"160";"52.3525724,4.9063895"
"1192";"110";"1624PB";"14c";"52.65044839999999,5.0743934"
"1193";"485";"";"9";"52.0088227,4.3612462"
"1194";"1155";"";"2";"52.12390260000001,4.6673116"
"1195";"1158";"1018PL";"213";"52.3710644,4.9275767"
"1196";"716";"";"12";"52.5597528,4.8542869"
"1197";"140";"";"5";"50.9260907,5.3464982"
"1198";"899";"";"";""
"1199";"372";"";"71";"52.4568751,4.6311823"
"1200";"281";"";"";""
"1201";"146";"";"";""
"1202";"410";"";"";""
"1203";"143";"6811 KA";"1";"51.9842597,5.905282199999999"
"1204";"1191";"1071AA";"5a";"52.3585755,4.8714368"
"1205";"1076";"";"1";"52.267747,4.5401552"
"1206";"659";"2350";"84";"51.31499609999999,4.8878322"
"1207";"431";"";"32";"51.49416470000001,4.2858449"
"1208";"14";"";"";""
"1209";"385";" 1031 CC";"5c";"52.3833047,4.9036167"
"1210";"8";"";"51";"51.44834119999999,5.4558811"
"1211";"1299";"";"90";"52.5440645,5.8583512"
"1212";"126";"";"82c";"51.5823197,5.196928199999999"
"1213";"109";"";"";""
"1214";"268";"";"";""
"1215";"965";"1051 KM";"6";"52.3762601,4.8668634"
"1216";"1450";"";"2a";"52.1294632,4.6747165"
"1217";"1279";"5611 CK";"2";"51.4417543,5.4832548"
"1218";"1154";"";"";""
"1219";"201";"";"1";"51.9181124,4.4035258"
"1220";"1309";"";"6";"51.96672299999999,5.664974000000001"
"1221";"711";"";"1";"52.4066799,4.6229543"
"1222";"328";"";"";""
"1223";"1054";"";"1";"52.5038706,6.4432886"
"1224";"549";"";"";""
"1225";"629";"";"4-6";"52.2067637,6.2942069"
"1226";"761";"3024BH";"108";"51.907652,4.459323599999999"
"1227";"1278";"";"14";"52.5159201,6.0976557"
"1228";"1291";"";"51";"51.9096291,4.3462606"
"1229";"942";"";"";""
"1230";"773";"";"43";"52.3364141,5.218296899999999"
"1231";"307";"";"27";"51.9153645,4.4749882"
"1232";"1176";"";"";""
"1233";"856";"6131GZ";"88";"51.0013487,5.8722346"
"1234";"1307";"4101AA";"1";"51.9594601,5.2230341"
"1235";"185";"1017 RR";"10";"52.3633766,4.8837847"
"1236";"1030";"";"2";"52.2226407,6.8949602"
"1237";"1113";"";"";""
"1238";"63";"";"";""
"1239";"1206";"";"";""
"1240";"1043";"6811LA";"33";"51.9826338,5.9021586"
"1241";"1153";"";"";""
"1242";"16";"";"4";"52.3749196,4.930416399999999"
"1243";"882";"";"";""
"1244";"207";"1015JH";"1";"52.3808775,4.880813"
"1245";"361";"3534 BE";"100";"52.101599,5.087967"
"1246";"1451";"";"12";"52.0605256,5.1718473"
"1247";"46";"";"50";"51.8452543,4.6385298"
"1248";"897";"";"105462 EH";"51.6155803,5.5308419"
"1249";"1452";"";"";""
"1250";"1160";"";"126";"52.0745431,5.032682299999999"
"1251";"75";"1000";"67";"50.8426661,4.3510728"
"1252";"1095";"";"1";"51.2321783,5.307912000000001"
"1253";"500";"";"";""
"1254";"298";"";"";""
"1255";"1453";"2100";"36";"51.2263201,4.4678947"
"1256";"88";"2951 GC";"4";"51.8609504,4.657797599999999"
"1257";"738";"3981 AH";"52";"52.0574279,5.2166622"
"1258";"376";"";"13";"51.9278216,4.4765176"
"1259";"464";"6135 BW";"26";"51.0079045,5.8564015"
"1260";"870";"";"8e";"52.3129152,6.518466"
"1261";"931";"";"27";"51.98604760000001,5.920591"
"1262";"1281";"";"";""
"1263";"572";"";"3";"52.2231959,5.4851867"
"1264";"59";"";"7";"52.0769599,5.121693899999999"
"1265";"731";"";"";""
"1266";"461";"";"1";"52.3458903,4.8255893"
"1267";"1032";"";"71";"52.0949718,5.121921899999999"
"1268";"664";"";"2";"53.2025797,6.5554077"
"1269";"778";"";"36 - 38";"50.8506884,4.3597953"
"1270";"20";"";"";""
"1271";"390";"5611EP";"71";"51.4364125,5.482268299999999"
"1272";"84";"";"";""
"1273";"1251";"";"22";"52.16009589999999,5.379143"
"1274";"791";"";"77";"52.0849659,4.8866098"
"1275";"1044";"3500";"70";"50.9343811,5.3620677"
"1276";"36";"";"51A";"50.8646809,5.825463000000001"
"1277";"315";"";"";""
"1278";"679";"";"45";"51.3166385,4.4276976"
"1279";"840";"4461 CS";"3";"51.50496949999999,3.8872073"
"1280";"313";"";"";""
"1281";"262";"";"";""
"1282";"1327";"";"75";"52.13977879999999,4.3917773"
"1283";"1014";"";"26";"51.6964835,5.2993345"
"1284";"871";"";"";""
"1285";"892";"";"";""
"1286";"745";"1182 DC";"7";"52.3217155,4.8259044"
"1287";"851";"4700";"17";"50.6264304,6.026607"
"1288";"950";"";"";""
"1289";"971";"1068LE";"300";"52.3590151,4.8074534"
"1290";"1304";"1431 BA";"15";"52.2695782,4.7528073"
"1291";"1069";"";"24";"50.6436068,5.5679416"
"1292";"1298";"5531HM";"4";"51.3700432,5.2154815"
"1293";"138";"1703 XC";"1";"52.6623769,4.8280596"
"1294";"908";"2665 EH";"4";"52.0062901,4.5350927"
"1295";"168";"3511";"97";"52.0929066,5.1164026"
"1296";"1177";"";"";""
"1297";"858";"";"";""
"1298";"648";"8331 EG ";"110";"52.78495119999999,6.1203954"
"1299";"508";"";"";""
"1300";"792";"5051 RJ";"1";"51.51992000000001,5.065512"
"1301";"147";"";"50";"52.35663,4.9103431"
"1302";"1454";"3311XP";"65";"51.8142252,4.6710071"
"1303";"358";"";"26";"52.0932161,5.1214251"
"1304";"80";"";"25";"51.4796266,3.6560097"
"1305";"1224";"";"1";"51.4632647,5.795275"
"1306";"995";"";"";""
"1307";"390";"";"55";"51.4365351,5.4816316"
"1308";"1296";"";"";""
"1309";"647";"";"";""
"1310";"568";"";"";""
"1311";"350";"";"18";"51.92542299999999,4.476304000000001"
"1312";"759";"";"46";"51.6466946,3.9304013"
"1313";"369";"";"17";"51.88827879999999,4.5485612"
"1314";"1275";"6041 JA";"12-16";"51.1915124,5.989683500000001"
"1315";"436";"";"";""
"1316";"872";"3511 PA";"279";"52.0862031,5.1218857"
"1317";"1192";"";"150";"52.5477636,4.9129249"
"1318";"27";"";"";""
"1319";"578";"";"73";"51.6908229,5.1805705"
"1320";"1062";"";"";""
"1321";"1131";"";"14";"51.43922910000001,5.6182496"
"1322";"959";"";"";""
"1323";"1213";"";"";""
"1324";"286";"8801 KP";"2";"53.1874332,5.543155899999999"
"1325";"555";"";"3";"51.6496211,3.9152978"
"1326";"718";"";"";""
"1327";"1455";" 3768MZ";"1";"52.1379324,5.2819322"
"1328";"1328";"";"";""
"1329";"1211";"";"1";"51.7160856,5.3704944"
"1330";"1290";"";"";""
"1331";"590";"6002 AZ";"2c";"51.2571351,5.6898645"
"1332";"1282";"";"150";"52.3985505,4.8538573"
"1333";"49";"";"67";"51.8438751,5.862053"
"1334";"316";"";"26";"51.2177456,4.4218399"
"1335";"561";"";"16";"50.5936186,5.8610159"
"1336";"574";"4811 HL";"101";"51.5838152,4.7788493"
"1337";"254";"";"27";"52.075929,4.309239799999999"
"1338";"125";"";"4";"52.0831185,4.7474622"
"1339";"1335";"6211 KL";"15";"50.84490590000001,5.687080099999999"
"1340";"77";"";"";""
"1341";"1058";"1244 PL";"57";"52.2630294,5.0975782"
"1342";"1250";"";"";""
"1343";"975";"";"129";"52.6298769,4.7498306"
"1344";"1456";"";"42";"53.2564626,6.459956399999999"
"1345";"382";"9711 PA";"6";"53.2174996,6.5702811"
"1346";"108";"2806AE";"67";"52.015808,4.7123253"
"1347";"1193";"";"27";"51.9243985,6.0759346"
"1348";"1137";"";"59";"51.4333755,5.4715178"
"1349";"760";"6511 VD";"6";"51.84757,5.865188799999999"
"1350";"948";"";"191";"52.3800698,4.854305399999999"
"1351";"1457";"7411NW";"9";"52.2536095,6.1514339"
"1352";"691";"";"";""
"1353";"1025";"9711 JA";"10";"53.2154502,6.5622713"
"1354";"232";"";"6a";"52.0879413,5.1067276"
"1355";"345";"";"18-20";"51.5894814,4.7752805"
"1356";"1190";"4331 SG";"99";"51.5045647,3.616632199999999"
"1357";"468";"";"";""
"1358";"1458";"3011GC";"27";"51.9215646,4.485501"
"1359";"240";"";"";""
"1360";"937";"3534AZ";"15";"52.1001251,5.0830152"
"1361";"1288";"7511 PH";"40-42";"52.2226283,6.895171299999999"
"1362";"918";"9723 BD";"6";"53.214293,6.597526999999999"
"1363";"1226";"3930";"6";"51.248865,5.5445229"
"1364";"53";"";"23";"52.3779263,4.6256344"
"1365";"13";"";"21-23";"52.0846178,4.3121905"
"1366";"1201";"1101 AX";"100";"52.31344740000001,4.9371842"
"1367";"734";"";"";""
"1368";"1459";"";"1";"52.1400388,5.584455"
"1369";"1460";"4811VB";"7";"51.5893204,4.7716452"
"1370";"788";"3011 XE";"11";"51.9164372,4.4907766"
"1371";"1133";"";"";""
"1372";"524";"";"2";"52.357542,4.8991938"
"1373";"90";"3511 AZ";"158";"52.0920995,5.1187318"
"1374";"430";"";"2";"52.2281814,6.8710955"
"1375";"1461";"";"";""
"1376";"492";"";"5";"52.39692909999999,4.8772544"
"1377";"230";"1011 LX";"116";"52.3699029,4.903177599999999"
"1378";"1012";"";"";""
"1379";"1118";"";"4";"52.5569479,5.9068651"
"1380";"227";"6661EG";"39";"51.9184694,5.847675"
"1381";"1228";"";"23";"51.84795030000001,5.868550099999999"
"1382";"1462";"7311BD";"188";"52.2167965,5.958062300000001"
"1383";"217";"7876AP";"279";"52.87617729999999,6.9546028"
"1384";"150";"";"231";"52.3828754,4.920566099999999"
"1385";"202";"3000";"63";"50.8801795,4.6963816"
"1386";"982";"";"";""
"1387";"1463";"";"123";"52.1424222,5.238586"
"1388";"340";"2545 VP";"57";"52.0518928,4.2695675"
"1389";"1111";"";"";""
"1390";"1134";"5401 gp";"32";"51.6570921,5.6176977"
"1391";"766";"";"";""
"1392";"980";"";"25";"52.0105997,4.359385899999999"
"1393";"304";"";"90";"51.8927165,5.0965868"
"1394";"1464";"";"58B";"51.9169602,4.4637721"
"1395";"112";"";"28";"52.3594673,4.9127246"
"1396";"234";"";"11";"51.8445596,5.8535039"
"1397";"1465";"8012VA";"67";"52.5067975,6.099039700000001"
"1398";"1466";" 7126AG";"35";"51.9407496,6.6157252"
"1399";"1467";"4811XE";"1";"51.5913948,4.7812746"
"1400";"289";"";"";""
"1401";"1064";"1054 HW";"301";"52.3600834,4.8656878"
"1402";"1093";"";"25";"52.3760736,4.8940986"
"1403";"319";"2717AV";"145";"52.0633317,4.469430399999999"
"1404";"1173";"9120";"2";"51.2131318,4.2623729"
"1405";"444";"";"3";"52.5518448,4.6754454"
"1406";"467";"";"";""
"1407";"22";"";"7";"52.21003959999999,5.97444"
"1408";"1468";"";"20a";"52.2507614,6.161329"
"1409";"9";"";"";""
"1410";"1273";"";"";""
"1411";"1205";"";"69";"52.2581358,4.5593964"
"1412";"8";"5617 AB";"50";"51.4487271,5.4576445"
"1413";"754";"8400";"18A";"51.2298807,2.9156784"
"1414";"1234";"";"";""
"1415";"1143";"";"1";"51.4984757,3.6081626"
"1416";"988";"";"";""
"1417";"1264";"";"17";"52.0220582,4.8714398"
"1418";"1188";"";"5";"51.0481097,3.7322145"
"1419";"243";"9401 ET";"1";"52.994984,6.558327299999999"
"1420";"1469";"";"2";"52.1204489,5.1850346"
"1421";"324";"";"7";"52.3840685,4.8840031"
"1422";"1470";"";"49";"52.0784612,4.3050109"
"1423";"66";"";"";""
"1424";"897";"";"10";"51.6149371,5.5297579"
"1425";"1471";"6686 BS";"27";"51.89407000000001,5.998861"
"1426";"1472";"";"1111";"52.3338916,4.8631543"
"1427";"1333";"";"6";"52.1590905,4.4789824"
"1428";"261";"";"";""
"1429";"1270";"1017 BM";"42";"52.3662259,4.8913174"
"1430";"1047";"";"6";"51.3282319,5.9806328"
"1431";"245";"";"1";"52.5099645,4.9472277"
"1432";"374";"";"";""
"1433";"30";"3012 CL";"50";"51.922087,4.472854"
"1434";"442";"";"";""
"1435";"1473";"";"40";"52.03308699999999,5.168133999999999"
"1436";"491";"3812 PB";"90(achterzijde Kleine Koppel 31)";"52.1612181,5.3807864"
"1437";"637";"";"";""
"1438";"4";"1823 CW";"5";"52.63774249999999,4.7486402"
"1439";"1474";"";"";""
"1440";"837";"9000";"2";"51.0562901,3.7225946"
"1441";"506";"";"39";"51.9223326,4.4765866"
"1442";"426";"";"39";"52.02116609999999,4.8744844"
"1443";"1120";"";"1";"50.93752869999999,3.1246213"
"1444";"203";"";"293";"50.8140548,4.355266600000001"
"1445";"370";"7321 BX ";"50";"52.2069919,5.997801600000001"
"1446";"861";"";"1";"52.15670009999999,5.3910614"
"1447";"422";"";"23";"51.6867111,5.3088662"
"1448";"185";"";"7-9";"52.3636044,4.8835787"
"1449";"356";"";"";""
"1450";"494";"";"1";"52.5398915,4.7175969"
"1451";"383";"";"141";"51.8185586,5.867431799999999"
"1452";"1475";"2514 BA";"7";"52.0867984,4.3129512"
"1453";"393";"";"4";"52.0771709,4.647770200000001"
"1454";"747";"";"";""
"1455";"849";"3901 EG";"10";"52.0245011,5.5530047"
"1456";"156";"";"59";"52.9899385,6.6147347"
"1457";"277";"";"169";"52.3720899,4.8909365"
"1458";"1181";"";"91";"52.2627613,5.6106586"
"1459";"744";"";"";""
"1460";"1318";"";"";""
"1461";"1476";"";"";""
"1462";"727";"2900 ER";"5";"51.9315924,4.588153699999999"
"1463";"1088";"";"";""
"1464";"1022";"";"6";"52.4351528,6.2336414"
"1465";"587";"";"1";"51.4994442,5.434067499999999"
"1466";"477";"";"";""
"1467";"726";"";"";""
"1468";"306";"";"1";"51.8140944,4.6616651"
"1469";"1075";"";"61";"52.3988716,4.8923418"
"1470";"1239";"";"8";"51.6064789,4.7754645"
"1471";"1161";"";"8";"51.555514,5.0901952"
"1472";"251";"";"23";"52.3089296,5.0397926"
"1473";"225";"";"126";"51.62687529999999,4.9418076"
"1474";"434";"2312 CS";"1";"52.16303569999999,4.488724599999999"
"1475";"1477";"1782 TC";"14";"52.9574131,4.7489154"
"1476";"619";"3000";"62";"50.8816887,4.697623099999999"
"1477";"845";"";"";""
"1478";"282";"";"13";"52.6068301,6.4570737"
"1479";"1117";"";"";""
"1480";"83";"";"";""
"1481";"1478";"6903DA";"3";"51.9338272,6.073022799999999"
"1482";"301";"";"";""
"1483";"796";"";"2";"51.186876,5.1215826"
"1484";"1048";"";"";""
"1485";"1244";"";"44";"52.2293773,5.1780744"
"1486";"639";"";"100";"52.0535678,4.285159999999999"
"1487";"265";"";"";""
"1488";"978";"";"4";"52.4405729,4.8758883"
"1489";"1266";"";"15";"52.3941095,4.9230805"
"1490";"661";"2018";"25";"51.19332499999999,4.403597"
"1491";"189";"";"";""
"1492";"503";"";"7";"51.75987250000001,4.161060099999999"
"1493";"390";"";"32";"51.4364785,5.4813025"
"1494";"936";"";"17";"51.190524,5.987764299999999"
"1495";"866";"";"";""
"1496";"504";"";"17a";"52.1590636,4.4941727"
"1497";"69";"";"90";"52.2594508,4.7677283"
"1498";"737";"";"251";"53.1472055,7.0415084"
"1499";"12";"";"";""
"1500";"640";"2312 BW";"2";"52.163828,4.484670800000001"
"1501";"425";"1014 DA";"27";"52.3860447,4.8661221"
"1502";"418";"";"";""
"1503";"705";"7551 HV";"44";"52.2628091,6.7950745"
"1504";"93";"";"";""
"1505";"904";"";"";""
"1506";"169";"";"165";"52.1345152,4.6634569"
"1507";"1479";"8561 BH";"27";"52.8979355,5.580910299999999"
"1508";"1321";"7451 BL";"6";"52.2810794,6.4216466"
"1509";"273";"1017PL";"402";"52.364302,4.8808873"
"1510";"1294";"";"";""
"1511";"368";"";"";""
"1512";"90";"";"245";"52.0872498,5.1213977"
"1513";"105";"";"3";"51.7506656,4.3704021"
"1514";"1085";"";"49";"52.0978765,5.1179428"
"1515";"835";"";"1";"53.216063,5.8862467"
"1516";"698";"";"";""
"1517";"1329";"";"7";"51.0544778,3.7313528"
"1518";"765";"";"";""
"1519";"589";"";"";""
"1520";"828";"";"1";"52.3142828,4.9407865"
"1521";"583";"6212 NA";"112-113";"50.8238407,5.6955972"
"1522";"318";"";"";""
"1523";"213";"";"1";"52.7007536,5.292987200000001"
"1524";"396";"";"";""
"1525";"951";"5041SB";"8-76";"51.5614284,5.0874671"
"1526";"1233";"";"151";"51.5991116,4.7705231"
"1527";"469";"";"";""
"1528";"401";"";"";""
"1529";"669";"";"";""
"1530";"238";"1054JK";"26";"52.3600265,4.8682522"
"1531";"1108";"";"23";"52.09007829999999,5.090597700000001"
"1532";"321";"7311 BR";" 377";"52.2156335,5.958208900000001"
"1533";"927";"";"159";"52.5073692,5.47777"
"1534";"380";"";"";""
"1535";"1257";"";"38";"52.2051064,4.3964468"
"1536";"853";"";"2";"51.4365432,5.479343699999999"
"1537";"958";"";"1";"52.85497179999999,5.0270125"
"1538";"1480";"6030";"136";"50.41324119999999,4.404891699999999"
"1539";"663";"";"";""
"1540";"544";"2600";"6A";"51.1949712,4.4439335"
"1541";"968";"3930";"28";"51.2517776,5.547496"
"1542";"645";"";"9";"51.6222777,5.4374674"
"1543";"989";"5248 NL";"133";"51.7117363,5.4177333"
"1544";"864";"";"1";"52.1159613,5.0840423"
"1545";"279";"";"";""
"1546";"26";"";"3";"52.2951488,4.9512518"
"1547";"449";"";"";""
"1548";"1215";"";"";""
"1549";"44";"";"";""
"1550";"129";"2516 BE";"36";"52.073617,4.3326902"
"1551";"1057";"";"";""
"1552";"1481";"";"";""
"1553";"721";"3701HS";"2";"52.08197999999999,5.239434999999999"
"1554";"1317";"";"4";"50.9175508,6.050905999999999"
"1555";"1482";"6811GD";"60";"51.9827571,5.907472299999999"
"1556";"148";"5038BM";"62";"51.5585941,5.086833899999999"
"1557";"1053";"";"34";"51.48445359999999,5.140757499999999"
"1558";"364";"";"336";"52.3860202,4.881921300000001"
"1559";"210";"";"";""
"1560";"1102";"";"51";"50.93903719999999,4.0422764"
"1561";"955";"6711JC";"2 - D42";"52.0288663,5.675030599999999"
"1562";"613";"";"25";"52.3939894,4.8514059"
"1563";"579";"";"29";"51.4790095,5.6491204"
"1564";"1031";"";"4";"51.9730036,5.3451382"
"1565";"1484";"";"";""
"1566";"1485";"";"";""
"1567";"1486";"";"";""
"1568";"1487";"";"";""
"1569";"1488";"";"";""
"1570";"1489";"";"";""
"1571";"1490";"";"";""
"1572";"1491";"";"";""
"1573";"1492";"";"";""
"1574";"1493";"";"";""
"1575";"1494";"";"";""
"1576";"1495";"";"";""
"1577";"1496";"";"";""
"1578";"1497";"";"";""
"1579";"1498";"";"";""
"1581";"1500";"";"";""
"1582";"1501";"";"";""
"1583";"1502";"";"";""
"1584";"1503";"";"";""
"1585";"1504";"";"";""
"1586";"1505";"";"";""
"1587";"1506";"";"";""
"1588";"1507";"";"";""
"1589";"1508";"";"";""
"1590";"1509";"";"";""
"1591";"1510";"";"123";"51.8133512,6.1261731"
"1592";"1511";"";"";""
"1593";"1512";"";"";""
"1594";"1513";"";"";""
"1595";"1514";"";"";""
"1596";"1515";"";"";""
"1597";"1516";"";"";""
"1598";"1517";"";"";""
"1599";"1518";"";"";""
"1600";"1519";"";"";""
"1601";"1520";"";"";""
"1602";"1521";"";"";""
"1603";"1522";"";"";""
"1604";"1523";"";"";""
"1605";"1524";"";"";""
"1606";"1525";"";"";""
"1607";"1526";"";"";""
"1608";"1527";"";"";""
"1609";"1528";"";"";""
"1610";"1529";"";"";""
"1611";"1225";"7901JR";"34";"52.7275974,6.4771603"
"1612";"1530";"";"";""
"1613";"1531";"";"";""
"1614";"1532";"7948NJ";"30A";"52.7264194,6.1599919"
"1615";"1533";"9321 CB";"52";"53.14721309999999,6.4954253"
"1616";"217";"7876BE";"505";"52.8984233,6.997559799999999"
"1617";"1534";"";"";""
"1618";"1535";"";"";""
"1619";"1536";"";"";""
"1620";"1537";"";"";""
"1621";"1538";"";"39b";"52.52335,5.704734999999999"
"1622";"1539";"1354AM";"60";"52.3359397,5.221136"
"1623";"1540";"1315HT";"2";"52.3721336,5.2214445"
"1624";"1107";"8224JS";"3";"52.5130528,5.476594800000001"
"1625";"1541";"";"13";"53.2549937,6.142665999999999"
"1626";"1542";"";"1-10";"52.5187921,5.458848199999999"
"1627";"1543";"";"";""
"1628";"1544";"8734HE";"2";"53.0978029,5.6183041"
"1629";"1545";"1696BK";"98";"52.67008999999999,5.1203309"
"1630";"1546";"9743DA";"18";"53.2099708,6.5360806"
"1631";"1547";" 1312JZ";"21";"52.3701692,5.1946447"
"1632";"741";"";"61 - 63";"53.20026739999999,5.7912248"
"1633";"1548";"9106 GA";"4";"53.31120019999999,5.9425592"
"1634";"1549";"";"";""
"1635";"1550";"1066EL";"28";"52.3421786,4.7978204"
"1636";"1551";"3011DA";"4";"51.9245014,4.480026899999999"
"1637";"1552";"2051GJ";"158";"52.3966291,4.6124087"
"1638";"1553";"8899 AK";"84";"53.2959069,5.0691758"
"1639";"1554";"";"7";"53.2958076,5.0649422"
"1640";"1555";"";"5A";"53.2512088,5.6227201"
"1641";"1556";"7121EX";"12";"51.9201061,6.5804383"
"1642";"1557";"7315AB";"16";"52.2204492,5.9552666"
